EcotaxaTools Tutorial - Re-naming taxa in zoo files
…
Finally, when using names_to() with an ecopart_obj as shown below, it will print the unique reclassifications for each zoo_df. This is a pretty ugly printout but work looking at the first time working with a dataset. In this example, I set suppress_print = T to avoid all that clutter:

library(EcotaxaTools)
#re classifying with names_to()
new_obj <- ecopart_example |> 
        add_zoo(func = names_to, col_name = 'name', new_names = c('Chaetognatha','Copepoda','Eumalacostraca','living','not-living'),
        suppress_print = T)

# just to view an example
new_obj$zoo_files$bats361_ctd1

# A tibble: 3,237 × 90
   orig_id    objid name  taxo_hierarchy classif_qual depth_including… psampleid
   <chr>      <dbl> <chr> <chr>          <chr>                   <dbl>     <dbl>
 1 bats361_… 1.46e8 not-… not-living>de… V                        54       33963
 2 bats361_… 1.46e8 not-… not-living>de… V                        43.4     33963
 3 bats361_… 1.46e8 not-… not-living>de… V                        52.1     33963
 4 bats361_… 1.46e8 not-… not-living>de… V                        23.4     33963
 5 bats361_… 1.46e8 not-… not-living>de… V                        53.3     33963
 6 bats361_… 1.46e8 not-… not-living>de… V                        74.7     33963
 7 bats361_… 1.46e8 not-… not-living>ar… V                        70.4     33963
 8 bats361_… 1.46e8 not-… not-living>ar… V                        42.5     33963
 9 bats361_… 1.46e8 not-… not-living>de… V                        57.1     33963
10 bats361_… 1.46e8 not-… not-living>de… V                        83.1     33963
# … with 3,227 more rows, and 83 more variables: `%area` <dbl>, angle <dbl>,
#   area <dbl>, area_exc <dbl>, areai <dbl>, bx <dbl>, by <dbl>, cdexc <dbl>,
#   centroids <dbl>, circ. <dbl>, circex <dbl>, compentropy <dbl>,
#   compm1 <dbl>, compm2 <dbl>, compm3 <dbl>, compmean <dbl>, compslope <dbl>,
#   convarea <dbl>, convarea_area <dbl>, convperim <dbl>,
#   convperim_perim <dbl>, cv <dbl>, elongation <dbl>, esd <dbl>, fcons <dbl>,
#   feret <dbl>, feretareaexc <dbl>, fractal <dbl>, height <dbl>, …
…
