EcotaxaTools Tutorial - Particle Concentration
…
uvp_par_conc() can be used to quickly calculate the particle concentration in 1-m depth bins. The user must specify what sizes (by ESD) particles should be grouped. If left unspecified, the total particle concentration (regardless of size) will be returned.

To specify particle size classes use bin_limits. min_esd and max_esd can both be used to specify sizes.

library(EcotaxaTools)
# in this list, there is a faulty cast at index 16
ecopart_example$par_files <- ecopart_example$par_files[-16]
par_conc <- ecopart_example |> uvp_par_conc(bin_limits = c(.1,.25,1,2)) # for three size classes

This now creates a list with particle concentrations for each cast. This data can all be combined with list_to_tib()

par_conc |> list_to_tib('cast')

# A tibble: 80,307 × 4
   depth par_conc esd_bin    cast        
   <dbl>    <dbl> <chr>      <chr>       
 1     3    0.169 (0.1,0.25] bats361_ctd1
 2     4    0.199 (0.1,0.25] bats361_ctd1
 3     5    0.170 (0.1,0.25] bats361_ctd1
 4     6    0.178 (0.1,0.25] bats361_ctd1
 5     7    0.252 (0.1,0.25] bats361_ctd1
 6     8    0.231 (0.1,0.25] bats361_ctd1
 7     9    0.240 (0.1,0.25] bats361_ctd1
 8    10    0.281 (0.1,0.25] bats361_ctd1
 9    11    0.237 (0.1,0.25] bats361_ctd1
10    12    0.332 (0.1,0.25] bats361_ctd1
# … with 80,297 more rows
…
